…
    ## 
    ## -- Column specification -------------------------------------------------
    ## cols(
    ##   Team = col_character(),
    ##   `GP (4/7/22)` = col_double(),
    ##   `GF/GP` = col_double(),
    ##   Conference = col_character()
    ## )

The datasets were then created:

    Teams

    ## # A tibble: 32 x 4
    ##    Team                `GP (4/7/22)` `GF/GP` Conference
    ##    <chr>                       <dbl>   <dbl> <chr>     
    ##  1 Arizona Coyotes                70    2.51 west      
    ##  2 Montréal Canadiens             70    2.54 east      
    ##  3 Philadelphia Flyers            70    2.57 east      
    ##  4 Seattle Kraken                 70    2.59 west      
    ##  5 San Jose Sharks                69    2.61 west      
    ##  6 Chicago Blackhawks             70    2.63 west      
    ##  7 Ottawa Senators                69    2.7  east      
    ##  8 Buffalo Sabres                 71    2.73 east      
    ##  9 Anaheim Ducks                  72    2.74 west      
    ## 10 New York Islanders             69    2.77 east      
    ## # ... with 22 more rows
…
